simulation/modelsim/msim_transcript
# Reading C:/intelFPGA_lite/17.1/modelsim_ase/tcl/vsim/pref.tcl
# Reading C:/Users/zabra/modelsim.tcl
# do MiniProject_run_msim_rtl_verilog.do
# if {[file exists rtl_work]} {
# 	vdel -lib rtl_work -all
# }
# vlib rtl_work
# vmap work rtl_work
# Model Technology ModelSim - Intel FPGA Edition vmap 10.5b Lib Mapping Utility 2016.10 Oct  5 2016
# vmap work rtl_work 
# Copying C:/intelFPGA_lite/17.1/modelsim_ase/win32aloem/../modelsim.ini to modelsim.ini
# Modifying modelsim.ini
# 
# vlog -vlog01compat -work work +incdir+C:/Users/zabra/Workspace/ELEC5566M-Mini-Project-kamzaaa {C:/Users/zabra/Workspace/ELEC5566M-Mini-Project-kamzaaa/SevenSegment.v}
# Model Technology ModelSim - Intel FPGA Edition vlog 10.5b Compiler 2016.10 Oct  5 2016
# Start time: 20:58:21 on Jun 16,2022
# vlog -reportprogress 300 -vlog01compat -work work "+incdir+C:/Users/zabra/Workspace/ELEC5566M-Mini-Project-kamzaaa" C:/Users/zabra/Workspace/ELEC5566M-Mini-Project-kamzaaa/SevenSegment.v 
# -- Compiling module SevenSegment
# 
# Top level modules:
# 	SevenSegment
# End time: 20:58:21 on Jun 16,2022, Elapsed time: 0:00:00
# Errors: 0, Warnings: 0
# vlog -vlog01compat -work work +incdir+C:/Users/zabra/Workspace/ELEC5566M-Mini-Project-kamzaaa {C:/Users/zabra/Workspace/ELEC5566M-Mini-Project-kamzaaa/SevenSegManager.v}
# Model Technology ModelSim - Intel FPGA Edition vlog 10.5b Compiler 2016.10 Oct  5 2016
# Start time: 20:58:21 on Jun 16,2022
# vlog -reportprogress 300 -vlog01compat -work work "+incdir+C:/Users/zabra/Workspace/ELEC5566M-Mini-Project-kamzaaa" C:/Users/zabra/Workspace/ELEC5566M-Mini-Project-kamzaaa/SevenSegManager.v 
# -- Compiling module SevenSegManager
# 
# Top level modules:
# 	SevenSegManager
# End time: 20:58:21 on Jun 16,2022, Elapsed time: 0:00:00
# Errors: 0, Warnings: 0
# 
# vlog -vlog01compat -work work +incdir+C:/Users/zabra/Workspace/ELEC5566M-Mini-Project-kamzaaa/simulation {C:/Users/zabra/Workspace/ELEC5566M-Mini-Project-kamzaaa/simulation/SevenSegManager_tb.v}
# Model Technology ModelSim - Intel FPGA Edition vlog 10.5b Compiler 2016.10 Oct  5 2016
# Start time: 20:58:21 on Jun 16,2022
# vlog -reportprogress 300 -vlog01compat -work work "+incdir+C:/Users/zabra/Workspace/ELEC5566M-Mini-Project-kamzaaa/simulation" C:/Users/zabra/Workspace/ELEC5566M-Mini-Project-kamzaaa/simulation/SevenSegManager_tb.v 
# -- Compiling module SevenSegManager_tb
# 
# Top level modules:
# 	SevenSegManager_tb
# End time: 20:58:21 on Jun 16,2022, Elapsed time: 0:00:00
# Errors: 0, Warnings: 0
# 
# vsim -t 1ps -L altera_ver -L lpm_ver -L sgate_ver -L altera_mf_ver -L altera_lnsim_ver -L cyclonev_ver -L cyclonev_hssi_ver -L cyclonev_pcie_hip_ver -L rtl_work -L work -voptargs="+acc"  SevenSegManager_tb
# vsim -t 1ps -L altera_ver -L lpm_ver -L sgate_ver -L altera_mf_ver -L altera_lnsim_ver -L cyclonev_ver -L cyclonev_hssi_ver -L cyclonev_pcie_hip_ver -L rtl_work -L work -voptargs=""+acc"" SevenSegManager_tb 
# Start time: 20:58:21 on Jun 16,2022
# Loading work.SevenSegManager_tb
# Loading work.SevenSegManager
# Loading work.SevenSegment
# 
# do C:/Users/zabra/Workspace/ELEC5566M-Mini-Project-kamzaaa/../ELEC5566M-Resources/simulation/load_sim.tcl
#
# NativeLink Simulation Initialisation Script
# ===========================================
# By: Thomas Carpenter
# Date: 31st December 2017
# For: University of Leeds
#
# Description
# ===========
# This is a basic sample script for initialising a simulation
#
# All commands in this script will be executed, and comments will
# be printed to the screen
#
# Most of the work in compiling is done by Quartus automatically.
# Here we can add some extra commands.
#
# There is lots of stuff you can do, such as running initialisation
# scripts, preparing memory contents, setting up the simulator.
#
# 
#
# First lets clean up any old NativeLink backup files. Quartus
# creates a new backup file every time it runs. It never deletes
# these files so you end up with an ever increasing number of them.
#
# The {*}[glob -nocomplain ... ] command performs wildcard matching
# of filenames, to make sure we get all .bak files. The "-nocomplain"
# and "catch {}" ensure that if no backups exist, there is no error.
#
# 
# catch {file delete {*}[glob -nocomplain *_msim_rtl_verilog.do.bak*]}
# 0
# 
#
# This will continue executing our script if a break point in the
# simulation is reached - for example the $stop command in Verilog
#
# 
# onbreak {resume}
# 
# 
# Once you add signals to the Wave view to see them graphically
# and got them all set up to your liking (Radix, arrangement, etc.)
# it is possible to save that layout as a "Waveform Format Do File".
# From modelsim if you click on the Wave window and File->Save Format
# this will generate the "Do" file for you.
#
# I will assume that you saved the file with name "wave.do" (default)
# in the simulation folder (same place as this TCL).
#
# Each time we run the simulation, we can run this file to restore 
# the setup:
#
#   do <filename>
#
# Of course the first time you run the simulation the file might not
# yet exist - you might never choose to save a format. So we also
# first check if the file exists before do-ing it.
# 
# 
# We normalise the filename to prevent issues with spaces in the filename
# set waveFile [file normalize "./wave.do"]
# C:/Users/zabra/Workspace/ELEC5566M-Mini-Project-kamzaaa/simulation/modelsim/wave.do
# 
# if { [file exists $waveFile] } {
#     #If the saved file exists, load it
#     do $waveFile
# } else {
#     #Otherwise simply add all signals in the testbench formatted as unsigned decimal.
#     add wave -radix unsigned -position insertpoint sim:/*
# }
# 
#
# Then we can configure the units for the timeline. Lets stick to
# nanoseconds instead of the default of picoseconds.
#
# 
# configure wave -timelineunits ns
# 
# 
# Next we can start the simulation. We simply say "run".
#
# The "run" command can be followed by a time parameter, such as:
#
#     run 100ns     # Run for 100ns
#     run -all      # Run until the testbench stops changing stimuli
#     run 10        # Run for 10 "timesteps" (typically 1ps per step)
#
# ========== Simulation Starts Here ===========
# 
# run -all
#                    0 ns	Simulation Started
# Game not running check:
#                    0 ns	clock=0	reset=1	running=0	score0= 0	score1= 0	hex2=40	hex3=40	hex4=40	hex5=40
#                   10 ns	clock=1	reset=1	running=0	score0= 0	score1= 0	hex2=40	hex3=40	hex4=40	hex5=40
#                   20 ns	clock=0	reset=1	running=0	score0= 0	score1= 0	hex2=40	hex3=40	hex4=40	hex5=40
#                   30 ns	clock=1	reset=1	running=0	score0= 0	score1= 0	hex2=40	hex3=40	hex4=40	hex5=40
#                   40 ns	clock=0	reset=1	running=0	score0= 0	score1= 0	hex2=40	hex3=40	hex4=40	hex5=40
#                   50 ns	clock=1	reset=1	running=0	score0= 0	score1= 0	hex2=40	hex3=40	hex4=40	hex5=40
#                   60 ns	clock=0	reset=1	running=0	score0= 0	score1= 0	hex2=40	hex3=40	hex4=40	hex5=40
#                   70 ns	clock=1	reset=1	running=0	score0= 0	score1= 0	hex2=40	hex3=40	hex4=40	hex5=40
#                   80 ns	clock=0	reset=1	running=0	score0= 0	score1= 0	hex2=40	hex3=40	hex4=40	hex5=40
#                   90 ns	clock=1	reset=0	running=0	score0= 0	score1= 0	hex2=40	hex3=40	hex4=40	hex5=40
#                  100 ns	clock=0	reset=0	running=0	score0= 0	score1= 0	hex2=40	hex3=40	hex4=40	hex5=40
#                  110 ns	clock=1	reset=0	running=0	score0= 0	score1= 0	hex2=42	hex3=2b	hex4=23	hex5=0c
#                  120 ns	clock=0	reset=0	running=0	score0= 0	score1= 0	hex2=42	hex3=2b	hex4=23	hex5=0c
#                  130 ns	clock=1	reset=0	running=0	score0= 0	score1= 0	hex2=42	hex3=2b	hex4=23	hex5=0c
#                  140 ns	clock=0	reset=0	running=0	score0= 0	score1= 0	hex2=42	hex3=2b	hex4=23	hex5=0c
#                  150 ns	clock=1	reset=0	running=0	score0= 0	score1= 0	hex2=42	hex3=2b	hex4=23	hex5=0c
#                  160 ns	clock=0	reset=0	running=0	score0= 0	score1= 0	hex2=42	hex3=2b	hex4=23	hex5=0c
#                  170 ns	clock=1	reset=0	running=0	score0= 0	score1= 0	hex2=42	hex3=2b	hex4=23	hex5=0c
#                  180 ns	clock=0	reset=0	running=0	score0= 0	score1= 0	hex2=42	hex3=2b	hex4=23	hex5=0c
#                  190 ns	clock=1	reset=0	running=0	score0= 0	score1= 0	hex2=42	hex3=2b	hex4=23	hex5=0c
#                  200 ns	clock=0	reset=0	running=0	score0= 0	score1= 0	hex2=42	hex3=2b	hex4=23	hex5=0c
#                  210 ns	clock=1	reset=0	running=0	score0= 0	score1= 0	hex2=42	hex3=2b	hex4=23	hex5=0c
#                  220 ns	clock=0	reset=0	running=0	score0= 0	score1= 0	hex2=42	hex3=2b	hex4=23	hex5=0c
#                  230 ns	clock=1	reset=0	running=0	score0= 0	score1= 0	hex2=42	hex3=2b	hex4=23	hex5=0c
#                  240 ns	clock=0	reset=0	running=0	score0= 0	score1= 0	hex2=42	hex3=2b	hex4=23	hex5=0c
#                  250 ns	clock=1	reset=0	running=0	score0= 0	score1= 0	hex2=42	hex3=2b	hex4=23	hex5=0c
#                  260 ns	clock=0	reset=0	running=0	score0= 0	score1= 0	hex2=42	hex3=2b	hex4=23	hex5=0c
#                  270 ns	clock=1	reset=0	running=0	score0= 0	score1= 0	hex2=42	hex3=2b	hex4=23	hex5=0c
#                  280 ns	clock=0	reset=0	running=0	score0= 0	score1= 0	hex2=42	hex3=2b	hex4=23	hex5=0c
# 'pong' display success!
# Game running check:
#                  290 ns	clock=1	reset=0	running=1	score0= 0	score1= 0	hex2=42	hex3=2b	hex4=23	hex5=0c
#                  300 ns	clock=0	reset=0	running=1	score0= 0	score1= 0	hex2=42	hex3=2b	hex4=23	hex5=0c
#                  310 ns	clock=1	reset=0	running=1	score0= 0	score1= 0	hex2=40	hex3=7f	hex4=7f	hex5=40
#                  320 ns	clock=0	reset=0	running=1	score0= 0	score1= 0	hex2=40	hex3=7f	hex4=7f	hex5=40
#                  330 ns	clock=1	reset=0	running=1	score0= 0	score1= 0	hex2=40	hex3=7f	hex4=7f	hex5=40
#                  340 ns	clock=0	reset=0	running=1	score0= 0	score1= 0	hex2=40	hex3=7f	hex4=7f	hex5=40
#                  350 ns	clock=1	reset=0	running=1	score0= 0	score1= 0	hex2=40	hex3=7f	hex4=7f	hex5=40
#                  360 ns	clock=0	reset=0	running=1	score0= 0	score1= 0	hex2=40	hex3=7f	hex4=7f	hex5=40
#                  370 ns	clock=1	reset=0	running=1	score0= 0	score1= 0	hex2=40	hex3=7f	hex4=7f	hex5=40
#                  380 ns	clock=0	reset=0	running=1	score0= 0	score1= 0	hex2=40	hex3=7f	hex4=7f	hex5=40
# score display zero success!
#                  390 ns	clock=1	reset=0	running=1	score0= 3	score1= 7	hex2=40	hex3=7f	hex4=7f	hex5=40
#                  400 ns	clock=0	reset=0	running=1	score0= 3	score1= 7	hex2=40	hex3=7f	hex4=7f	hex5=40
#                  410 ns	clock=1	reset=0	running=1	score0= 3	score1= 7	hex2=78	hex3=7f	hex4=7f	hex5=30
#                  420 ns	clock=0	reset=0	running=1	score0= 3	score1= 7	hex2=78	hex3=7f	hex4=7f	hex5=30
#                  430 ns	clock=1	reset=0	running=1	score0= 3	score1= 7	hex2=78	hex3=7f	hex4=7f	hex5=30
#                  440 ns	clock=0	reset=0	running=1	score0= 3	score1= 7	hex2=78	hex3=7f	hex4=7f	hex5=30
#                  450 ns	clock=1	reset=0	running=1	score0= 3	score1= 7	hex2=78	hex3=7f	hex4=7f	hex5=30
#                  460 ns	clock=0	reset=0	running=1	score0= 3	score1= 7	hex2=78	hex3=7f	hex4=7f	hex5=30
#                  470 ns	clock=1	reset=0	running=1	score0= 3	score1= 7	hex2=78	hex3=7f	hex4=7f	hex5=30
#                  480 ns	clock=0	reset=0	running=1	score0= 3	score1= 7	hex2=78	hex3=7f	hex4=7f	hex5=30
# score display success!
# Game over check:
#                  490 ns	clock=1	reset=0	running=0	score0= 9	score1= 7	hex2=78	hex3=7f	hex4=7f	hex5=30
#                  500 ns	clock=0	reset=0	running=0	score0= 9	score1= 7	hex2=78	hex3=7f	hex4=7f	hex5=30
#                  510 ns	clock=1	reset=0	running=0	score0= 9	score1= 7	hex2=7f	hex3=7f	hex4=79	hex5=0c
#                  520 ns	clock=0	reset=0	running=0	score0= 9	score1= 7	hex2=7f	hex3=7f	hex4=79	hex5=0c
#                  530 ns	clock=1	reset=0	running=0	score0= 9	score1= 7	hex2=7f	hex3=7f	hex4=79	hex5=0c
#                  540 ns	clock=0	reset=0	running=0	score0= 9	score1= 7	hex2=7f	hex3=7f	hex4=79	hex5=0c
#                  550 ns	clock=1	reset=0	running=0	score0= 9	score1= 7	hex2=7f	hex3=7f	hex4=79	hex5=0c
#                  560 ns	clock=0	reset=0	running=0	score0= 9	score1= 7	hex2=7f	hex3=7f	hex4=79	hex5=0c
#                  570 ns	clock=1	reset=0	running=0	score0= 9	score1= 7	hex2=7f	hex3=7f	hex4=79	hex5=0c
#                  580 ns	clock=0	reset=0	running=0	score0= 9	score1= 7	hex2=7f	hex3=7f	hex4=79	hex5=0c
# Winner display success!
#                  590 ns	clock=1	reset=0	running=0	score0= 9	score1= 7	hex2=7f	hex3=7f	hex4=79	hex5=0c
#                  600 ns	clock=0	reset=0	running=0	score0= 9	score1= 7	hex2=7f	hex3=7f	hex4=79	hex5=0c
#                  610 ns	clock=1	reset=0	running=0	score0= 9	score1= 7	hex2=7f	hex3=7f	hex4=79	hex5=0c
#                  620 ns	clock=0	reset=0	running=0	score0= 9	score1= 7	hex2=7f	hex3=7f	hex4=79	hex5=0c
#                  630 ns	clock=1	reset=0	running=0	score0= 9	score1= 7	hex2=7f	hex3=7f	hex4=79	hex5=0c
#                  640 ns	clock=0	reset=0	running=0	score0= 9	score1= 7	hex2=7f	hex3=7f	hex4=79	hex5=0c
#                  650 ns	clock=1	reset=0	running=0	score0= 9	score1= 7	hex2=7f	hex3=7f	hex4=79	hex5=0c
#                  660 ns	clock=0	reset=0	running=0	score0= 9	score1= 7	hex2=7f	hex3=7f	hex4=79	hex5=0c
#                  670 ns	clock=1	reset=0	running=0	score0= 9	score1= 7	hex2=7f	hex3=7f	hex4=79	hex5=0c
#                  680 ns	clock=0	reset=0	running=0	score0= 9	score1= 7	hex2=7f	hex3=7f	hex4=79	hex5=0c
#                  690 ns	clock=1	reset=0	running=0	score0= 9	score1= 7	hex2=7f	hex3=7f	hex4=79	hex5=0c
#                  700 ns	clock=0	reset=0	running=0	score0= 9	score1= 7	hex2=7f	hex3=7f	hex4=79	hex5=0c
#                  710 ns	clock=1	reset=0	running=0	score0= 9	score1= 7	hex2=7f	hex3=7f	hex4=79	hex5=0c
#                  720 ns	clock=0	reset=0	running=0	score0= 9	score1= 7	hex2=7f	hex3=7f	hex4=79	hex5=0c
#                  730 ns	clock=1	reset=0	running=0	score0= 9	score1= 7	hex2=7f	hex3=7f	hex4=79	hex5=0c
#                  740 ns	clock=0	reset=0	running=0	score0= 9	score1= 7	hex2=7f	hex3=7f	hex4=79	hex5=0c
#                  750 ns	clock=1	reset=0	running=0	score0= 9	score1= 7	hex2=7f	hex3=7f	hex4=79	hex5=0c
#                  760 ns	clock=0	reset=0	running=0	score0= 9	score1= 7	hex2=7f	hex3=7f	hex4=79	hex5=0c
#                  770 ns	clock=1	reset=0	running=0	score0= 9	score1= 7	hex2=7f	hex3=7f	hex4=79	hex5=0c
#                  780 ns	clock=0	reset=0	running=0	score0= 9	score1= 7	hex2=7f	hex3=7f	hex4=79	hex5=0c
#                  790 ns	clock=1	reset=0	running=0	score0= 9	score1= 7	hex2=7f	hex3=7f	hex4=79	hex5=0c
#                  800 ns	clock=0	reset=0	running=0	score0= 9	score1= 7	hex2=7f	hex3=7f	hex4=79	hex5=0c
#                  810 ns	clock=1	reset=0	running=0	score0= 9	score1= 7	hex2=7f	hex3=7f	hex4=79	hex5=0c
#                  820 ns	clock=0	reset=0	running=0	score0= 9	score1= 7	hex2=7f	hex3=7f	hex4=79	hex5=0c
#                  830 ns	clock=1	reset=0	running=0	score0= 9	score1= 7	hex2=7f	hex3=7f	hex4=79	hex5=0c
#                  840 ns	clock=0	reset=0	running=0	score0= 9	score1= 7	hex2=7f	hex3=7f	hex4=79	hex5=0c
#                  850 ns	clock=1	reset=0	running=0	score0= 9	score1= 7	hex2=7f	hex3=7f	hex4=79	hex5=0c
#                  860 ns	clock=0	reset=0	running=0	score0= 9	score1= 7	hex2=7f	hex3=7f	hex4=79	hex5=0c
#                  870 ns	clock=1	reset=0	running=0	score0= 9	score1= 7	hex2=7f	hex3=7f	hex4=79	hex5=0c
#                  880 ns	clock=0	reset=0	running=0	score0= 9	score1= 7	hex2=7f	hex3=7f	hex4=79	hex5=0c
#                  890 ns	clock=1	reset=0	running=0	score0= 9	score1= 7	hex2=7f	hex3=7f	hex4=79	hex5=0c
#                  900 ns	clock=0	reset=0	running=0	score0= 9	score1= 7	hex2=7f	hex3=7f	hex4=79	hex5=0c
#                  910 ns	clock=1	reset=0	running=0	score0= 9	score1= 7	hex2=7f	hex3=7f	hex4=79	hex5=0c
#                  920 ns	clock=0	reset=0	running=0	score0= 9	score1= 7	hex2=7f	hex3=7f	hex4=79	hex5=0c
#                  930 ns	clock=1	reset=0	running=0	score0= 9	score1= 7	hex2=7f	hex3=7f	hex4=79	hex5=0c
#                  940 ns	clock=0	reset=0	running=0	score0= 9	score1= 7	hex2=7f	hex3=7f	hex4=79	hex5=0c
#                  950 ns	clock=1	reset=0	running=0	score0= 9	score1= 7	hex2=7f	hex3=7f	hex4=79	hex5=0c
#                  960 ns	clock=0	reset=0	running=0	score0= 9	score1= 7	hex2=7f	hex3=7f	hex4=79	hex5=0c
#                  970 ns	clock=1	reset=0	running=0	score0= 9	score1= 7	hex2=7f	hex3=7f	hex4=79	hex5=0c
#                  980 ns	clock=0	reset=0	running=0	score0= 9	score1= 7	hex2=7f	hex3=7f	hex4=79	hex5=0c
#                  990 ns	clock=1	reset=0	running=0	score0= 9	score1= 7	hex2=7f	hex3=7f	hex4=79	hex5=0c
#                 1000 ns	Simulation Finished
# ** Note: $stop    : C:/Users/zabra/Workspace/ELEC5566M-Mini-Project-kamzaaa/simulation/SevenSegManager_tb.v(150)
#    Time: 1 us  Iteration: 0  Instance: /SevenSegManager_tb
# Break in Module SevenSegManager_tb at C:/Users/zabra/Workspace/ELEC5566M-Mini-Project-kamzaaa/simulation/SevenSegManager_tb.v line 150
# altEditor error: couldn't execute "C:\Program Files (x86)\Notepad++\notepad++.exe": no such file or directory
# 
# ========== Simulation Ends Here ===========
#
# Once the simulation finishes we will reach here
#
# Let's for example zoom out in the wave display to fit all data
#
# 
# wave zoom full
# 0 ps
# 1050 ns
# End time: 20:58:59 on Jun 16,2022, Elapsed time: 0:00:38
# Errors: 1, Warnings: 0
